{
    "testName": "Functional.scrashme",
    "specs": {
        "default": {
            "NUM":"100",
            "MODE":"random"
        },
        "rotate": {
            "NUM":"100",
            "MODE":"rotate"
        },
        "capcheck": {
            "NUM":"100",
            "MODE":"capcheck"
        }
    }
}
