{
    "schema_version":"1.0",
    "criteria":[
        {
            "tguid":"testset1",
            "min_pass": 2,
            "max_fail": 1 
        },
        {
            "tguid":"testset2",
            "min_pass": 1,
            "max_fail": 2 
        }
    ]
}
