{
    "testPlanName": "default",
    "default_timeout": "6m",
    "default_spec": "default",
    "default_reboot": "false",
    "default_rebuild": "false",
    "default_precleanup": "true",
    "default_postcleanup": "true",
    "default_FUEGO_DEBUG": "1",
    "tests": [
        {
            "testName": "Benchmark.Dhrystone"
        },
        {
            "testName": "Benchmark.dbench"
        },
        {
            "testName": "Benchmark.hackbench"
        },
        {
            "testName": "Benchmark.himeno"
        },
        {
            "testName": "Benchmark.netperf"
        },
        {
            "testName": "Benchmark.OpenSSL",
	    "timeout": "15m"
        },
        {
            "testName": "Benchmark.Whetstone"
        },
        {
            "testName": "Benchmark.signaltest"
        },
        {
            "testName": "Benchmark.reboot"
        },
        {
            "testName": "Benchmark.linpack"
        },
        {
            "testName": "Benchmark.cyclictest"
        },
        {
            "testName": "Functional.bc"
        },
        {
            "testName": "Functional.OpenSSL"
        },
        {
            "testName": "Functional.crashme"
        },
        {
            "testName": "Functional.ipv6connect"
        },
        {
            "testName": "Functional.jpeg"
        },
        {
            "testName": "Functional.netperf",
	    "timeout": "12m"
        },
        {
            "testName": "Functional.scrashme"
        },
        {
            "testName": "Functional.synctest"
        },
        {
            "testName": "Functional.zlib"
        },
        {
            "testName": "Functional.hello_world"
        }
    ]
}
