{
    "testName": "Functional.serial_rx",
    "specs": {
        "default": {
            "BAUDRATES"      : "9600 115200",
            "DUT_SERIAL_DEV" : "/dev/ttyPS0",
            "HOST_SERIAL_DEV": "/dev/ttyS0"
        }
    } 
}
