{
    "testName": "Functional.kselftest",
    "specs": {
        "default": {
            "gitrepo": "https://github.com/torvalds/linux.git"
        },
        "docker": {
            "gitrepo": "https://github.com/torvalds/linux.git",
            "targets": "exec kcmp timers",
            "fail_count": "3"
        },
        "template": {
            "gitrepo": "https://xxx/yyy.git",
            "gitref": "my_tag_branch_or_commit_id",
            "targets": "breakpoints cpu-hotplug efivarfs exec firmware ftrace futex kcmp lib membarrier memfd memory-hotplug mount mqueue net powerpc pstore ptrace seccomp size static_keys sysctl timers user vm x86 zram",
            "fail_count": "3"
        }
    }
}
