{
    "schema_version":"1.0",
    "criteria":[
        {
            "tguid":"File.Read.speed",
            "reference":{
                "value":1,
                "operator":"ge"
            }
        },
        {
            "tguid":"File.Write.speed",
            "reference":{
                "value":1,
                "operator":"ge"
            }
        },
        {
            "tguid":"Read.Random.speed",
            "reference":{
                "value":1,
                "operator":"ge"
            }
        },
        {
            "tguid":"Read.Seq.speed",
            "reference":{
                "value":1,
                "operator":"ge"
            }
        },
        {
            "tguid":"Write.Random.speed",
            "reference":{
                "value":1,
                "operator":"ge"
            }
        },
        {
            "tguid":"Write.Seq.speed",
            "reference":{
                "value":1,
                "operator":"ge"
            }
        }
    ]
}
