{
    "schema_version":"1.0",
    "criteria":[
        {
            "tguid":"default.Whetstone.Score",
            "reference":{
                "value":1,
                "operator":"ge"
            }
        },
        {
            "tguid":"default.Whetstone",
            "min_pass":1
        }
    ]
}
