{
    "testName": "Functional.pi_tests",
    "specs": {
        "default": {
            "PARAMS": "--duration=60"
        },
        "roundrobin": {
            "PARAMS": "--duration=60 --rr"
        },
        "uniprocessor": {
            "PARAMS": "--duration=60 --uniprocessor"
        },
        "stress": {
            "PARAMS": "--duration=60 --groups=20"
        },
        "latest": {
            "PER_JOB_BUILD": "true",
            "gitrepo": "https://git.kernel.org/pub/scm/utils/rt-tests/rt-tests.git",
            "gitref": "unstable/devel/v1.1.1",
            "PARAMS": "--duration=60"
        }
    }
}
